…
For the regressions, we’ll convert the `friend_group_pid5` variable into
a numeric score from -2 to 2 (All Democrats, …, All Republicans). We’ll
collapse respondents who marked “Not sure” into the same bucket as those
who marked “About evenly split”.

``` r
df <- df %>% mutate(
  friend_group_pid = ifelse(friend_group_pid5 == "Not sure", 0, as.numeric(friend_group_pid5) - 3),
)
df %>% dplyr::select(friend_group_pid5, friend_group_pid)
```

    ## # A tibble: 5,891 × 2
    ##    friend_group_pid5  friend_group_pid
    ##    <fct>                         <dbl>
    ##  1 Mostly Democrats                 -1
    ##  2 Not sure                          0
    ##  3 Mostly Democrats                 -1
    ##  4 Mostly Republicans                1
    ##  5 Not sure                          0
    ##  6 Mostly Democrats                 -1
    ##  7 About evenly split                0
    ##  8 Not sure                          0
    ##  9 Not sure                          0
    ## 10 Not sure                          0
    ## # ℹ 5,881 more rows
…
